{
  "images" : [
    {
      "idiom" : "universal",
      "filename" : "ic_bot_send.png",
      "scale" : "1x"
    },
    {
      "idiom" : "universal",
      "filename" : "ic_bot_send@2x.png",
      "scale" : "2x"
    },
    {
      "idiom" : "universal",
      "filename" : "ic_bot_send@3x.png",
      "scale" : "3x"
    }
  ],
  "info" : {
    "version" : 1,
    "author" : "xcode"
  }
}