{
  "images" : [
    {
      "idiom" : "universal",
      "filename" : "66515167_2427800037452042_4569938811756216320_n-2.png",
      "scale" : "1x"
    },
    {
      "idiom" : "universal",
      "filename" : "66515167_2427800037452042_4569938811756216320_n-1.png",
      "scale" : "2x"
    },
    {
      "idiom" : "universal",
      "filename" : "66515167_2427800037452042_4569938811756216320_n.png",
      "scale" : "3x"
    }
  ],
  "info" : {
    "version" : 1,
    "author" : "xcode"
  }
}