{
  "images" : [
    {
      "idiom" : "universal",
      "filename" : "64948152_1232888010226341_745185162387521536_n.png",
      "scale" : "1x"
    },
    {
      "idiom" : "universal",
      "filename" : "64948152_1232888010226341_745185162387521536_n-1.png",
      "scale" : "2x"
    },
    {
      "idiom" : "universal",
      "filename" : "64948152_1232888010226341_745185162387521536_n-2.png",
      "scale" : "3x"
    }
  ],
  "info" : {
    "version" : 1,
    "author" : "xcode"
  }
}