{
  "images" : [
    {
      "idiom" : "universal",
      "filename" : "66615756_429705640955987_2734087167436390400_n-2.png",
      "scale" : "1x"
    },
    {
      "idiom" : "universal",
      "filename" : "66615756_429705640955987_2734087167436390400_n-1.png",
      "scale" : "2x"
    },
    {
      "idiom" : "universal",
      "filename" : "66615756_429705640955987_2734087167436390400_n.png",
      "scale" : "3x"
    }
  ],
  "info" : {
    "version" : 1,
    "author" : "xcode"
  }
}